<svg xmlns="http://www.w3.org/2000/svg" width="35" height="35" viewBox="0 0 35 35">
    <g fill="#000" fill-rule="evenodd">
        <path d="M17.225.538C7.72.538 0 8.258 0 17.764c0 9.52 7.719 17.239 17.225 17.239 9.52 0 17.24-7.72 17.24-17.24 0-9.516-7.72-17.225-17.24-17.225zM12.42 29.365c-3.807 0-7.025-1.556-7.025-4.038 0-2.515 2.935-4.944 6.742-4.944l1.198-.01c-.525-.504-.937-1.136-.937-1.904 0-.452.148-.894.347-1.281l-.63.019c-3.133 0-5.236-2.23-5.236-4.984 0-2.703 2.902-5.037 5.971-5.037h6.88L18.183 8.29h-2.178c1.44.557 2.22 2.24 2.22 3.973 0 1.454-.81 2.693-1.946 3.587-1.103.864-1.313 1.233-1.313 1.968 0 .63 1.187 1.693 1.806 2.135 1.82 1.281 2.399 2.471 2.399 4.458 0 2.482-2.399 4.954-6.752 4.954zM25.852 15.65v4.303h-2.157V15.65h-4.313v-2.186h4.313V9.151h2.157v4.313h4.3v2.186h-4.3z"/>
        <path d="M14.576 21.299a5.461 5.461 0 0 0-1.704-.275c-2.639-.03-4.994 1.61-4.994 3.576 0 2 1.903 3.672 4.53 3.672 3.714 0 4.998-1.567 4.998-3.575 0-.232-.022-.474-.084-.706-.285-1.136-1.316-1.704-2.746-2.692zM15.755 12.39c-.307-2.313-1.99-4.184-3.755-4.238-1.767-.05-2.957 1.726-2.65 4.05.305 2.323 1.987 4.259 3.753 4.313 1.767.05 2.957-1.788 2.652-4.125z"/>
    </g>
</svg>
